<svg xmlns="http://www.w3.org/2000/svg" viewBox="0 0 118.9 118.9">
    <path d="M67.9 59.5l49.2-49.2c2.3-2.3 2.3-6.2 0-8.5s-6.2-2.3-8.5 0L59.5 51 10.2 1.8C7.9-.5 4-.5 1.7 1.8s-2.3 6.2 0 8.5L51 59.5 1.8 108.7c-2.3 2.3-2.3 6.2 0 8.5s6.2 2.3 8.5 0L59.5 68l49.2 49.2c2.3 2.3 6.2 2.3 8.5 0s2.3-6.2 0-8.5L67.9 59.5z"/>
</svg>
